%YAML 1.1
%TAG !u! tag:unity3d.com,2011:
--- !u!1045 &1
EditorBuildSettings:
  m_ObjectHideFlags: 0
  serializedVersion: 2
  m_Scenes:
  - enabled: 1
    path: Assets/Game Assets/Digimon 3D/Scenes/Application.unity
    guid: c2b7eb10d50dd594987d3c53e61f4926
  m_configObjects: {}
